^C:\USERS\JAKEB\DOCUMENTS\CS\VISUAL STUDIO 2015\PROJECTS\PAS 2 AND 3\PA 2\MAIN.C|C:\USERS\JAKEB\DOCUMENTS\CS\VISUAL STUDIO 2015\PROJECTS\PAS 2 AND 3\PA 2\PA2.C
C:\USERS\JAKEB\DOCUMENTS\CS\VISUAL STUDIO 2015\PROJECTS\PAS 2 AND 3\PA 2\DEBUG\VC140.PDB
C:\USERS\JAKEB\DOCUMENTS\CS\VISUAL STUDIO 2015\PROJECTS\PAS 2 AND 3\PA 2\DEBUG\VC140.IDB
C:\USERS\JAKEB\DOCUMENTS\CS\VISUAL STUDIO 2015\PROJECTS\PAS 2 AND 3\PA 2\DEBUG\MAIN.OBJ
C:\USERS\JAKEB\DOCUMENTS\CS\VISUAL STUDIO 2015\PROJECTS\PAS 2 AND 3\PA 2\DEBUG\PA2.OBJ
^C:\USERS\JAKEB\DOCUMENTS\CS\VISUAL STUDIO 2015\PROJECTS\PAS 2 AND 3\PA 2\MAIN.C
C:\USERS\JAKEB\DOCUMENTS\CS\VISUAL STUDIO 2015\PROJECTS\PAS 2 AND 3\PA 2\DEBUG\VC140.PDB
C:\USERS\JAKEB\DOCUMENTS\CS\VISUAL STUDIO 2015\PROJECTS\PAS 2 AND 3\PA 2\DEBUG\VC140.IDB
C:\USERS\JAKEB\DOCUMENTS\CS\VISUAL STUDIO 2015\PROJECTS\PAS 2 AND 3\PA 2\DEBUG\MAIN.OBJ
^C:\USERS\JAKEB\DOCUMENTS\CS\VISUAL STUDIO 2015\PROJECTS\PAS 2 AND 3\PA 2\PA2.C
C:\USERS\JAKEB\DOCUMENTS\CS\VISUAL STUDIO 2015\PROJECTS\PAS 2 AND 3\PA 2\DEBUG\VC140.PDB
C:\USERS\JAKEB\DOCUMENTS\CS\VISUAL STUDIO 2015\PROJECTS\PAS 2 AND 3\PA 2\DEBUG\VC140.IDB
C:\USERS\JAKEB\DOCUMENTS\CS\VISUAL STUDIO 2015\PROJECTS\PAS 2 AND 3\PA 2\DEBUG\PA2.OBJ
^C:\USERS\JAKEB\DOCUMENTS\CS\VISUAL STUDIO 2015\PROJECTS\PAS 2 AND 3\PA 2\MAIN.C|C:\USERS\JAKEB\DOCUMENTS\CS\VISUAL STUDIO 2015\PROJECTS\PAS 2 AND 3\PA 2\PA2.C|C:\USERS\JAKEB\DOCUMENTS\CS\VISUAL STUDIO 2015\PROJECTS\PAS 2 AND 3\PA 2\PA2TESTS.C
C:\USERS\JAKEB\DOCUMENTS\CS\VISUAL STUDIO 2015\PROJECTS\PAS 2 AND 3\PA 2\DEBUG\VC140.PDB
C:\USERS\JAKEB\DOCUMENTS\CS\VISUAL STUDIO 2015\PROJECTS\PAS 2 AND 3\PA 2\DEBUG\VC140.IDB
C:\USERS\JAKEB\DOCUMENTS\CS\VISUAL STUDIO 2015\PROJECTS\PAS 2 AND 3\PA 2\DEBUG\MAIN.OBJ
C:\USERS\JAKEB\DOCUMENTS\CS\VISUAL STUDIO 2015\PROJECTS\PAS 2 AND 3\PA 2\DEBUG\PA2.OBJ
C:\USERS\JAKEB\DOCUMENTS\CS\VISUAL STUDIO 2015\PROJECTS\PAS 2 AND 3\PA 2\DEBUG\PA2TESTS.OBJ
^C:\USERS\JAKEB\DOCUMENTS\CS\VISUAL STUDIO 2015\PROJECTS\PAS 2 AND 3\PA 2\PA2TESTS.C
C:\USERS\JAKEB\DOCUMENTS\CS\VISUAL STUDIO 2015\PROJECTS\PAS 2 AND 3\PA 2\DEBUG\VC140.PDB
